image_id,blur_val_x,folder,lap_val_norm,blur_val_y,fft_val_norm,img_category,svm_prediction
03Eciuk3DNnKxvpHZUrv.png,337.21,clear,0.4141898734177215,51.24,0.7497142857142858,0,0
06O78nCfeN6ZKQorRyBs.png,95.35,clear,0.1080379746835443,46.83,0.6237142857142857,0,0
0Qt0g8zT0D4YSyfkGu7c.png,223.69,clear,0.27049367088607595,51.93,0.7694285714285715,0,0
1dLwzIkQsv0D-e1E7n4N.png,137.26,clear,0.1610886075949367,50.49,0.7282857142857143,0,0
2jIzGoT5hg4oojdejqX_.png,69.9,clear,0.0758227848101266,45.12,0.5748571428571427,0,1
2R9z2bUwuc0t7BIsrvMX.png,105.54,clear,0.1209367088607595,49.38,0.6965714285714286,0,0
3Rm8QOwcLq16J5mJX0UV.png,113.68,clear,0.13124050632911394,45.29,0.5797142857142857,0,0
49J_SYvqkA1lhkIcSHcT.png,133.01,clear,0.15570886075949367,48.9,0.6828571428571428,0,0
4jfMUJ5umzf7gGnGmsC5.png,382.12,clear,0.4710379746835443,50.94,0.7411428571428571,0,0
4O3yasoVUlMzHDtVJLLH.png,159.97,clear,0.18983544303797467,48.6,0.6742857142857144,0,0
5KT18-w-oL5tpl07OQeu.png,84.26,clear,0.094,45.47,0.5848571428571429,0,1
6ff9FAw5uIwVaFSeuOmK.png,133.98,clear,0.15693670886075947,47.63,0.6465714285714287,0,0
6YVsyobrL88i4uj_Mvq5.png,198.57,clear,0.23869620253164556,51.37,0.7534285714285713,0,0
6_wBlkR41t8rBaSgIcYO.png,168.94,clear,0.20118987341772152,51.86,0.7674285714285715,0,0
7cdpKtDTU1mB-xWrneNC.png,116.18,clear,0.13440506329113924,50.44,0.7268571428571428,0,0
7DLteelvMNfcngExKS13.png,260.65,clear,0.3172784810126582,49.47,0.6991428571428571,0,0
7ejy6nlUIO060UGp005a.png,251.92,clear,0.3062278481012658,50.66,0.7331428571428571,0,0
7LcdyW5QhIH0PS_YDWYo.png,50.44,clear,0.051189873417721514,45.75,0.5928571428571429,0,1
86XwUfkQsdxJkvroOcTo.png,186.93,clear,0.2239620253164557,50.51,0.7288571428571428,0,0
8JlMRnw46ynUI-iLSyDA.png,115.91,clear,0.1340632911392405,46.57,0.6162857142857143,0,0
8P-TDSm0HQ33n9nw4dru.png,334.18,clear,0.41035443037974684,51.44,0.7554285714285713,0,0
98g21_40rkfHAf3l-Zgc.png,123.34,clear,0.14346835443037975,48.12,0.6605714285714285,0,0
9aRmDBNMwfcazmnfQtAx.png,101.23,clear,0.11548101265822786,49.16,0.6902857142857142,0,0
9i3fd8GekM64Th-5zxuS.png,132.94,clear,0.15562025316455697,45.25,0.5785714285714286,0,0
9OyOd0xuzASHiUElbrKG.png,254.51,clear,0.30950632911392406,50.51,0.7288571428571428,0,0
9Q3Z8YFCG-Vbbsv-7uQZ.png,197.32,clear,0.2371139240506329,49.06,0.6874285714285715,0,0
9_1JmmuWM-55uZEiAIC-.png,155.01,clear,0.18355696202531643,45.44,0.584,0,0
aIllM6EKK76nvFcHZ0jX.png,150.62,clear,0.17800000000000002,47.1,0.6314285714285715,0,0
APzCSrffK5VKfrcXOyFh.png,178.18,clear,0.2128860759493671,50.21,0.7202857142857143,0,0
ASLi1JoY3wJGP-6kBrG3.png,66.34,clear,0.07131645569620254,44.27,0.5505714285714287,0,1
AYvsAR7m9HY11CgXqBY2.png,161.44,clear,0.19169620253164557,48.45,0.67,0,0
BMdjnKn_KpIvxaXbXgcv.png,230.48,clear,0.2790886075949367,50.93,0.7408571428571429,0,0
bphxXJlhjGScTGanA1Bz.png,158.68,clear,0.18820253164556963,48.32,0.6662857142857143,0,0
BswBJhriGXElbDH-l8JC.png,164.26,clear,0.1952658227848101,49.9,0.7114285714285714,0,0
bTH7vztWpnxbAbOhJO_3.png,225.02,clear,0.2721772151898734,49.93,0.7122857142857143,0,0
c2aAjldMIXVpISVVr9Ry.png,214.24,clear,0.25853164556962027,52.13,0.7751428571428572,0,0
cA7gn8OSGrM9K5hYnJuk.png,68.1,clear,0.07354430379746835,47.19,0.6339999999999999,0,0
CerX2i2NW1tX_vCmMAKj.png,122.78,clear,0.14275949367088608,45.35,0.5814285714285715,0,0
cQVG4hKT6JxoeBIUhJkk.png,79.5,clear,0.0879746835443038,49.14,0.6897142857142857,0,0
CuJ_uzuyYa3wR7XsY6IS.png,224.97,clear,0.2721139240506329,52.41,0.783142857142857,0,0
D6xq1FpQw_04FO3n8CO8.png,187.68,clear,0.2249113924050633,46.72,0.6205714285714286,0,0
DjDdmI9s_2tOC7I6y0_M.png,218.88,clear,0.2644050632911392,47.59,0.6454285714285716,0,0
dlDRLjqMJ6RAwhBE0oIX.png,100.9,clear,0.11506329113924052,47.35,0.6385714285714286,0,0
dLtfIKX63guDBlMDEvU8.png,88.04,clear,0.09878481012658229,43.51,0.5288571428571428,0,1
dQKU6j3yAwheEW1cM5M4.png,145.42,clear,0.17141772151898732,48.62,0.6748571428571428,0,0
e8Jd2ZRL_WZwk9dk3mu3.png,106.61,clear,0.12229113924050633,47.01,0.6288571428571428,0,0
M2EyMzQ0OTc4MWI3ZDY3OGMzZjhiYTNjZjY0YzIyZWY=.png,117.03,clear,0.13548101265822785,41.84,0.48114285714285726,0,1
M2MxMTM4NmVkYzMwY2I4ZTE2ZjI5OWJjZDc1NjIxMDA=.png,299.57,clear,0.36654430379746833,47.44,0.6411428571428571,0,0
M2Y0MWQ5OGY5NmQwOTc5NTY5NDAwNDQ2MTBjMGQ2NjI=.png,97.62,clear,0.1109113924050633,43.35,0.5242857142857144,0,1
M2ZkNTY3ZGI4ZjY0MTIxOWVlNWVhN2Q3MWVhMzUxOWY=.png,413.05,clear,0.5101898734177215,46.75,0.6214285714285714,0,0
MDAwNTUzNTYxMDUyM2VlMjVhNTExMGMxMDExMDU5YjY=.png,359.76,clear,0.4427341772151899,50.92,0.7405714285714287,0,0
MDAxOTQwMGMyYTI1NTI2ZGY0ZGE1NzIyZjYyODVhYzA=.png,183.88,clear,0.2201012658227848,49.94,0.7125714285714285,0,0
MDBhMDdhNjQ1NDNiYmE3ZDk4MzcyNTJjMGQ3OTY3Mzc=.png,293.15,clear,0.3584177215189873,41.53,0.4722857142857143,0,0
MDBmNjdlNWVkM2MxMjI0ODE5MzljMTJlZThiNmE2MDQ=.png,135.95,clear,0.15943037974683544,49.2,0.6914285714285715,0,0
MDFhNDc3OGNlODI0MzBmMjAxYmIwOTg0ZDRkZTQ1Nzk=.png,106.58,clear,0.12225316455696203,41.48,0.47085714285714275,0,1
MDhkZDU4NWMyOGE2NjAyMWVkOWM1NTc5YjYwMTMwYjc=.png,151.76,clear,0.17944303797468353,45.54,0.5868571428571429,0,0
MDk0ZWNhOTAwOGI5ZTU1YmFhZTA1M2E4NTdmZjI4NGY=.png,122.25,clear,0.14208860759493672,46.38,0.6108571428571429,0,0
MDk2YTE4OGQ5Y2U0YjAwYjNhMzE5OWE1MTgxZWI5NTE=.png,254.25,clear,0.3091772151898734,50.97,0.742,0,0
MDk5YzBhYTE5OWMwYmZmMDNiZTI0MzNlNzJkMGM2NDU=.png,333.41,clear,0.4093797468354431,46.67,0.6191428571428572,0,0
MDlkMzAwYmQ5MTE3NzA2OGNhOTc2NWNjZjRkNDkxOTA=.png,452.89,clear,0.560620253164557,44.22,0.5491428571428572,0,0
MDMxZGFhOTQzNDNjYWE0ZmVjYWQyZWE4MzE2N2ExMDQ=.png,155.57,clear,0.18426582278481013,45.86,0.596,0,0
MDNhNDAwY2I1OWE5YTUzMTJmOGJhOWE2YzZlMWU4MGM=.png,319.56,clear,0.3918481012658228,46.47,0.6134285714285714,0,0
MGIyMmY0MTNjMTY2ZTRmYTYyOWE0NjZjZGFjZDI2OGY=.png,371.41,clear,0.4574810126582279,52.59,0.7882857142857144,0,0
MGRiZDdiZWU1OGU3ZTJhMzg1NTQ2Yjk5M2YwZWM5ZWY=.png,256.26,clear,0.31172151898734174,49.3,0.6942857142857142,0,0
MGU0MzJmYTQyZTg3MjYzZTliZTgxYTFiZDM4M2IxZDM=.png,102.87,clear,0.11755696202531646,42.97,0.5134285714285713,0,1
MGZmNzhkZTExZjIyODQxZGVlOTMxZjA4OTZjN2JiM2I=.png,240.79,clear,0.2921392405063291,45.29,0.5797142857142857,0,0
MjcwZmM4NGRjZjhlNjAwNWU0YTU1MTliODI4ZWE2MWE=.png,359.76,clear,0.4427341772151899,51.34,0.7525714285714287,0,0
Mjg1Mjk1NWY0ZjYyMzAxNGJiMWFmZDc0ZTVhYTYxMTk=.png,188.16,clear,0.22551898734177214,50.68,0.7337142857142857,0,0
MjJlZDYwMGYwYjliNmQ0NjA0Yjk4ODg0Yjc4MmYxYjE=.png,437.98,clear,0.541746835443038,45.47,0.5848571428571429,0,0
MjQwNzJlMzlmYjg1OTljMGM1Y2U3MDEyMjM1NTc2NzI=.png,303.6,clear,0.3716455696202532,46.27,0.6077142857142858,0,0
MjRlYjA4OTM3YmM4NjM3OTlmODUyZTczNzA3MjI5OTk=.png,330.31,clear,0.40545569620253163,50.74,0.7354285714285714,0,0
MjU0ZTZmODYxMmNhN2JmMWMwMGI4YTc2YWZhODU1Zjc=.png,160.66,clear,0.19070886075949367,43.52,0.5291428571428572,0,0
MjZlODlkMTYzNWFkZmY1Y2Y4MjU1YjNlYjU5ZWI4NDc=.png,284.27,clear,0.3471772151898734,46.06,0.6017142857142858,0,0
MmNmMzEzYmY0YzQ4ZmVkMjU0ODZlMzY0YzJkOTA2MTI=.png,198.17,clear,0.2381898734177215,48.09,0.6597142857142858,0,0
MmQ1NWI1MWJhMGJjYTNmYmFmOTA2NWNmZWM3MTEwMDc=.png,156.84,clear,0.185873417721519,44.43,0.5551428571428572,0,0
MmU1YTY3ODY4ZTZiNDZmZWEyMjJiNGJiY2YxYjQ0NzI=.png,16.42,clear,0.008126582278481015,31.56,0.1874285714285714,0,1
MmYzMzdjOWMzYWY2ZDcwMzBjMTVhODgyMzkyNWU0ZTg=.png,261.47,clear,0.3183164556962026,47.9,0.6542857142857142,0,0
MTg5MTI4Y2I5NzU4N2JiMmMyMTg3YWM1Y2E2YmQ3NGY=.png,541.11,clear,0.6722911392405063,51.38,0.7537142857142858,0,0
MTJkYTFmNGQ5MjVjMWQ2YzhkNzI1ZTE4NzQzMTJkNTM=.png,335.66,clear,0.41222784810126584,51.79,0.7654285714285715,0,0
MTQ2OWM1YmFkNWViNDI0ZGQ4MzkyYWRhY2Y4NjgzOTU=.png,220.4,clear,0.2663291139240506,42.87,0.5105714285714285,0,0
MTUxMmIzZmNiYmJiY2M2N2ZiMDg3YTVlN2Q1NWQ0OTg=.png,299.57,clear,0.36654430379746833,49.28,0.6937142857142857,0,0
MTZkNmJjOGNiYmY2ODZmMzZiNDUyZjkwMjc3NjJiNTU=.png,137.95,clear,0.16196202531645568,46.24,0.6068571428571429,0,0
MWFhNTk0ODZhMTQ4NjE1NzMyZDgxNzI0ODUyYjgyNjI=.png,129.52,clear,0.15129113924050633,40.98,0.45657142857142846,0,1
MWNmMzEyNTRmNjkxNjE0ZTg4Y2EyMTk5MTg2ZTJhYWQ=.png,518.05,clear,0.6431012658227847,48.88,0.6822857142857144,0,0
MWQ1ODM3NWEwN2Q0YWQyNDEzMGVkYmIyODA3MDRhNWY=.png,217.78,clear,0.2630126582278481,50.71,0.7345714285714285,0,0
MWUzNzViNjIzMWY0ODE3ZGE4Nzg0NDA5MDE3MjA4ODQ=.png,373.73,clear,0.46041772151898736,48.9,0.6828571428571428,0,0
MWY5ODNhNTA3YmM1ZGFjYzA1MWY5ODY0NzVkOTIwMWM=.png,720.61,clear,0.899506329113924,47.79,0.6511428571428571,0,0
MzdiZGQ4OWI2ZDE3NGI5YjIxMTg0ZDY0ZDdiYWVmOGY=.png,167.91,clear,0.19988607594936708,40.95,0.4557142857142858,0,0
Mzg3ODQ3YTMyMGNlMGNmYjlkMTM3YjMyNmMwY2UwMWU=.png,197.28,clear,0.23706329113924052,43.92,0.5405714285714286,0,0
MzgxZTRhMWYwZjQ3ZTdmY2MzNTVmYWVkODc1ODY2YzE=.png,352.88,clear,0.4340253164556962,47.91,0.6545714285714285,0,0
MzhiNDE3MzE4MWI0MGJkYzZhMTAzMTVkYWVlNmZjMDk=.png,327.11,clear,0.40140506329113923,48.0,0.6571428571428571,0,0
Mzk1Mjk0OTc4Mzk4ZTA3ZTgzZjQ5NDM3ODliOGEzNjE=.png,707.76,clear,0.8832405063291139,53.28,0.808,0,0
MzNkNzUzYTIxYjMzNGQwNDg4NGRkNzVkMmQyZmZkZjc=.png,264.89,clear,0.32264556962025315,49.55,0.7014285714285714,0,0
MzViZmQzZGM0N2NjOTIzZDhjOTAxOTVhMzdmZGZkYjI=.png,492.43,clear,0.6106708860759493,52.43,0.7837142857142857,0,0
MzVmZDgwYWI1ZGZhN2VjOGZiZGEzNmQzOTZkZDk0M2M=.png,186.26,clear,0.2231139240506329,50.04,0.7154285714285714,0,0
MzY4Mjk0NjA0NzEyMTBmMDgwODMzMzYyMzM5MGU1NDg=.png,338.4,clear,0.4156962025316455,49.14,0.6897142857142857,0,0
MzZhMTNhNTAxZTQzMjBkZGM5NjE4YzkwZDlkMDRhYTk=.png,162.54,clear,0.1930886075949367,46.65,0.6185714285714285,0,0
MzZkNTM4NDZlZDkwNGY5Y2MwOTBjNDQ2N2FjMGQyN2Y=.png,306.86,clear,0.3757721518987342,46.72,0.6205714285714286,0,0
N2EyMzI4YjNlNTk4MjBmZWE3MmU2NThlNTlkNGRkM2M=.png,285.54,clear,0.3487848101265823,45.24,0.5782857142857143,0,0
N2FjNzgzNzk1MDQzNGE0YWU4ZWU4ZWE1NWVlMDI5Y2M=.png,247.51,clear,0.30064556962025313,54.69,0.8482857142857142,0,0
N2M3ZGYwMGUwMTczNGYzOWUwNGNjZWY4Njc1NzI4NWM=.png,578.82,clear,0.7200253164556962,48.41,0.6688571428571427,0,0
N2M4NDdhNzBkZmY1MjUwNGQ3ZTU5N2NiOGQzZmFkOWU=.png,393.88,clear,0.4859240506329114,49.49,0.6997142857142857,0,0
N2Q4ZjdjYWVmMzRjYmM1YzE0ZTJhYzYzNDYxMGQ1N2E=.png,161.35,clear,0.19158227848101264,44.47,0.5562857142857143,0,0
N2Y2NjczYWQxNmNiMGNjYWIwZmJkMDE0MWNiOWFlMGI=.png,107.83,clear,0.12383544303797468,47.62,0.6462857142857142,0,0
NDE1ODNkZDEwYzg5MDM1ZjAzOWQwODc2OGRjOWY2OTY=.png,311.63,clear,0.3818101265822785,46.52,0.614857142857143,0,0
NDgyNzhhYmIyNTZmNTllYzgwMTRhZDdmODNmOGJhYzA=.png,197.39,clear,0.2372025316455696,49.19,0.6911428571428571,0,0
NDQyYmUxYTMyNmJkMTcyMTQzZGQxM2I0ZmEzOTg5ZWQ=.png,280.72,clear,0.3426835443037975,51.48,0.7565714285714285,0,0
NDU2MzVkMGNkMjgxN2VmZjI1ZWFlY2Q2YThkMzBmMWU=.png,622.12,clear,0.7748354430379747,49.65,0.7042857142857143,0,0
NGRhOTI2NzRmMjE1MDAzY2RiY2MwZWM0NGE0MTMzNzY=.png,283.87,clear,0.34667088607594937,50.96,0.7417142857142858,0,0
NGY2MTE5NGY4NmJiYTY4OTUyYWYxNmJmODgzNjA3MTE=.png,288.38,clear,0.35237974683544304,45.69,0.5911428571428571,0,0
NjA1MjZmOTMyMGY4ZDliNzAwMGMzZGVlMzA1MDk1ZGQ=.png,112.34,clear,0.12954430379746837,48.84,0.6811428571428573,0,0
Njc2M2VmNjRlNjQwMDVmZjU3NjdjODViMWFjYmJhMWQ=.png,119.7,clear,0.13886075949367088,51.19,0.7482857142857142,0,0
Njc5NGZiNzBjMDU5MjQwMzIzZWU1MTIwM2I3MWIxMGM=.png,175.98,clear,0.2101012658227848,48.72,0.6777142857142857,0,0
Njg2Zjk5MjRjY2JlNWJiZWU4MGEwYjI0YzQzN2E5NjI=.png,243.18,clear,0.2951645569620253,49.12,0.6891428571428571,0,0
NjhmNzk3MzJhYmQ5YTg4ZWZhNTU2MDVjZTAxNTEyMWI=.png,132.56,clear,0.15513924050632913,43.81,0.5374285714285715,0,0
NjNhZGU5ZjdiMGFmNzFiOTUwMDlmNmUxMDgxNGI5OWI=.png,471.15,clear,0.5837341772151898,52.35,0.7814285714285715,0,0
NjQ4NGZmZGFkZThlMjNmOWJkMGNmNDhhMTQ0NGI5Mjg=.png,254.28,clear,0.30921518987341773,53.89,0.8254285714285714,0,0
NjU1MTY5ZWM4YmUwMTMyMDAxYTljYzM4YmY2NTcwYTg=.png,793.26,clear,0.9914683544303797,50.95,0.7414285714285715,0,0
NjU3ODZjNTM4M2M0MjlkOTYzODA5ODg4MzE1ODc1ZWE=.png,585.15,clear,0.7280379746835443,54.62,0.8462857142857142,0,0
NjY1ZDhiMmViMWY2NDI2NWJkZjRkZWZjYzQyZGUyODE=.png,617.06,clear,0.7684303797468354,53.06,0.8017142857142858,0,0
NmE4MjVkNDNjZjlkYTA2YzQ1MzllMDM4YTcxYTQ1NDI=.png,212.86,clear,0.2567848101265823,49.59,0.7025714285714286,0,0
NmY2YzE0NzJiZjJmYjZlNjcxOWJiODc5OTZjMmFiZTE=.png,294.91,clear,0.3606455696202532,50.95,0.7414285714285715,0,0
NmYwODJjNmRjMDBkNmM2NGVhM2U2NmFmYzRlOWM1NzE=.png,227.72,clear,0.27559493670886076,46.94,0.6268571428571428,0,0
NTEzMzM1NjAzYjgxMmMzM2I2NjI4YWFhNDhkYzc4NzY=.png,243.59,clear,0.29568354430379745,52.32,0.7805714285714286,0,0
NTk5MzQ2MTVlNzE1NWFkMDlhN2NkZDFjOGZiZDVmNWE=.png,374.91,clear,0.46191139240506335,51.75,0.7642857142857142,0,0
NTRiOWJmYzk1NzhmNTRkYzU2NTk4YTM2OWIwYTljYzc=.png,352.65,clear,0.43373417721518986,46.66,0.6188571428571428,0,0
NTYwYTZlM2FjYTE2ZTBlMzcyYTgyMDlhZTJkNTY1MDY=.png,249.84,clear,0.3035949367088608,46.26,0.6074285714285713,0,0
NWYxNGJmZmQ2ZWMxMWI1ZDk5ZDllN2M3NmUwMzUxZGY=.png,257.15,clear,0.31284810126582274,48.13,0.6608571428571429,0,0
NWYxZGI0ODc2MGRkZDYzY2VhOWY4ZjFkMjA5MmJmYWQ=.png,134.79,clear,0.15796202531645567,46.98,0.6279999999999999,0,0
Nzc4YWNlNDM5OGIxYzE4YmU3YmU1NWMyZmZlY2QxMzM=.png,228.48,clear,0.27655696202531643,47.41,0.6402857142857142,0,0
NzJmYjAyN2E3YjQ5NGI4NTljMmM2ODc3OWIxODUwNGQ=.png,212.15,clear,0.2558860759493671,43.45,0.5271428571428572,0,0
NzM3ZTUzMTc3NDhlM2FjMWYwYzg2YzIxNzg4MzU2NDI=.png,269.03,clear,0.32788607594936703,49.72,0.7062857142857143,0,0
NzQ0N2I0N2I1MDRhOWVmYjJmMmEzNjYyYjZmODlkMWQ=.png,232.28,clear,0.28136708860759496,53.45,0.812857142857143,0,0
OTdmZjQ5NzhkZjAxMThiNzljZTU3ZTMxYTNhM2IyYWQ=.png,462.33,clear,0.5725696202531645,51.01,0.7431428571428571,0,0
OTFiN2FhNjNmNGEyMTQ2MTBmZWJhZTVjNjU3YzkwZDA=.png,536.17,clear,0.6660379746835442,51.99,0.7711428571428572,0,0
OTVmNTE0ZGQwZGUwMDM4YTUyZDM0ZjY3MjQ5Y2FiZmI=.png,169.24,clear,0.20156962025316458,46.59,0.616857142857143,0,0
YjgyYWNkYjRkY2E0NDI4MjQ3MzdmYmFhMTIwMDg5NGY=.png,575.99,clear,0.7164430379746836,50.43,0.7265714285714285,0,0
YjhhNDIxNTMyNTM4Nzk0OTcyMTZkNTYzYWRlZjA4OTA=.png,359.98,clear,0.44301265822784813,51.74,0.764,0,0
YjQ3YTM0M2Y4ZTA1MmM3Nzc0ODU0Y2Y3MjE0MGFmMGU=.png,403.35,clear,0.4979113924050633,52.86,0.7959999999999999,0,0
YmY0MDQ3NTZiNjJkOGY2NDQ2YjFkYjBiNzE1MjMxODY=.png,534.59,clear,0.6640379746835443,53.28,0.808,0,0
YTYxZmNkYjI4N2QzYTZkNTc2ZDQ4OWFiMDE3NjgxODc=.png,532.41,clear,0.6612784810126582,53.97,0.8277142857142857,0,0
YWE1YjcxNGI2OGNmYjJiNzFiNWY2ZDIzNmVjNWM1NGY=.png,330.66,clear,0.4058987341772152,51.23,0.7494285714285713,0,0
YzJhZDIxMjAxNDRmNmIyYmIzODY2ZWZmNThlM2Y0NDE=.png,411.35,clear,0.5080379746835443,50.11,0.7174285714285714,0,0
ZGIzY2VhYjY1MmI4ZmYzNjZhNTRmZTI5YTViZmVmMTI=.png,247.38,clear,0.30048101265822785,53.78,0.8222857142857143,0,0
ZjkzODk0NWE5MzM2ZWM0M2EwNjE0M2FkNzQzOTJjMzU=.png,360.12,clear,0.44318987341772154,50.94,0.7411428571428571,0,0
ZWU5Njg3MWIxNDQ2MjgyM2Y0ZWFmNThlMTMzMDgzZTI=.png,207.12,clear,0.24951898734177216,49.92,0.7120000000000001,0,0
_hi17ZReCCm3NaV2hOlZ.png,134.19,clear,0.1572025316455696,47.32,0.6377142857142857,0,0
_naZo8uu-WEd-iBcxq6y.png,230.07,clear,0.27856962025316456,49.68,0.7051428571428572,0,0
_P1C3vAOTee1S64UyKpl.png,104.9,clear,0.12012658227848103,49.26,0.6931428571428571,0,0
_tNyo4ypWu7QTzl6sGoU.png,200.43,clear,0.24105063291139242,51.43,0.7551428571428571,0,0
-5ZgNYV84ESYnG8rmSzQ.png,24.66,MCblur,0.018556962025316457,42.89,0.5111428571428571,1,1
0d-JvJVt7hhi3gXcuiqM.png,29.22,MCblur,0.02432911392405063,43.34,0.5240000000000001,1,1
0UxrK9lYNjEnhj5HpqMa.png,55.6,MCblur,0.05772151898734178,39.33,0.40942857142857136,1,1
558GJFYk8MGbVpyyvf8I.png,24.8,MCblur,0.018734177215189874,41.83,0.4808571428571428,1,1
5aYo7wXZO9BrVgCsOim5.png,29.88,MCblur,0.025164556962025315,41.94,0.48399999999999993,1,1
6AE64MPiN03lFiBmvASn.png,40.24,MCblur,0.03827848101265823,48.01,0.6574285714285714,1,1
6ectOv5yuZNMhpFFgUPA.png,45.23,MCblur,0.044594936708860757,40.52,0.4434285714285715,1,1
6uSnwY7Sgu-dmio-s-D0.png,35.76,MCblur,0.03260759493670886,43.53,0.5294285714285715,1,1
73BTy9XcIC6JqqTFgKra.png,36.37,MCblur,0.033379746835443036,38.17,0.37628571428571433,1,1
83AbDPg9mZ9Z3qF73Os-.png,50.74,MCblur,0.05156962025316456,48.39,0.6682857142857143,1,0
9iCHfte1f6tX1kJ2O_ay.png,65.13,MCblur,0.06978481012658228,44.84,0.566857142857143,1,1
A9zZMvpOoGMVyaz4FE6a.png,38.67,MCblur,0.03629113924050633,38.44,0.38399999999999995,1,1
AlvDGHqq8x94DXMDl5KW.png,39.44,MCblur,0.037265822784810124,40.7,0.4485714285714287,1,1
aRI8-W-i7ZB3VF5l5l1b.png,59.32,MCblur,0.06243037974683544,43.69,0.5339999999999999,1,1
asowLd-cqV8EjFbSSZ5z.png,45.04,MCblur,0.04435443037974683,45.04,0.5725714285714285,1,1
AvGZdMM_rkG4AXRZxswx.png,44.32,MCblur,0.043443037974683546,42.63,0.5037142857142858,1,1
Bd_mj0yL7BS4dCHdXj3-.png,36.82,MCblur,0.033949367088607595,43.8,0.537142857142857,1,1
BGtfbAhGpcouwQ7yts1b.png,73.76,MCblur,0.08070886075949368,40.9,0.45428571428571424,1,1
BLl-VCs7yrnt3-vwz2xB.png,28.91,MCblur,0.023936708860759492,41.34,0.46685714285714297,1,1
Bo1Yf4bzbfYUV9yNfqTL.png,17.03,MCblur,0.00889873417721519,40.19,0.43399999999999994,1,1
cWKdh5jTvfmJ1LadBS79.png,56.41,MCblur,0.05874683544303797,44.48,0.5565714285714285,1,1
cxSmQxlCdQUCkTDTU6xl.png,12.39,MCblur,0.003025316455696203,35.7,0.30571428571428577,1,1
cyDrLNNi3OVyDN3CPwpR.png,51.6,MCblur,0.052658227848101265,48.23,0.6637142857142856,1,0
d30R_0h8sBUUQVueEd0N.png,56.03,MCblur,0.05826582278481013,42.69,0.5054285714285713,1,1
d6HskVSOP5yFMNC1o3XG.png,21.97,MCblur,0.015151898734177214,34.6,0.2742857142857143,1,1
DHJL9q9ko8YwsIYjMomJ.png,36.96,MCblur,0.03412658227848101,43.79,0.5368571428571428,1,1
E7IDY05JVFtYwRKmD4zI.png,13.61,MCblur,0.004569620253164556,37.01,0.3431428571428571,1,1
M2E0OTNhYmUzNzRkMTYyZjMwYWFmYjc3NmVmMjhjZmM=.png,37.02,MCblur,0.03420253164556963,35.72,0.3062857142857143,1,1
M2U0NDJmMTBiNGJhNGY2Mjc1ZWVlYmFjYzkzMjMxYzM=.png,50.86,MCblur,0.05172151898734177,37.81,0.36600000000000005,1,1
M2Y5NDBiYTMyM2ZhYWU4NWIyZTdmNGEzMWMzNTk5N2Q=.png,60.05,MCblur,0.06335443037974683,36.71,0.3345714285714286,1,1
MDc2NjA0ZTc3MTM5MjhhMjI1NTk2ZjMyM2UwYWNjODg=.png,85.13,MCblur,0.0951012658227848,45.14,0.5754285714285714,1,1
MDI0OTc0ZGFkNjJhYzgwOGMwMWJkOThlM2Y5YmQyOGQ=.png,212.19,MCblur,0.2559367088607595,48.05,0.6585714285714285,1,0
MDNmZmY2ZWE2YWVmNWYyODZiZGE2Nzc3ZDUwZWFmMzU=.png,128.62,MCblur,0.15015189873417722,34.26,0.2645714285714285,1,1
MDU5NWNiZDgzNjI0NGE3NzA0MmZlODczNjFlYTlhODM=.png,85.11,MCblur,0.0950759493670886,48.63,0.6751428571428573,1,0
MDYzNjJiOWMwZDliZGRlOTA0YjJhZjNiMWM5NTI2YjI=.png,43.84,MCblur,0.04283544303797469,35.27,0.29342857142857154,1,1
MGQ0NTU2NzY1YmYxOTMzN2Q3Mzc0YTM4Njk2ZmJmYjY=.png,82.24,MCblur,0.09144303797468353,47.43,0.6408571428571429,1,0
MGQ5ODEwNGFhMDc5N2RiZTdhM2Y4ZmVlOTQ1ZTViNzM=.png,105.96,MCblur,0.12146835443037973,43.3,0.5228571428571428,1,1
MGQzMTI4Y2IwOGQ2YThhNTM1YmFlMzk4OGMyZGYyY2I=.png,64.12,MCblur,0.06850632911392406,42.0,0.4857142857142857,1,1
MGY0YzIxNjkwNmUxNDhkM2QxNThjODI1NWVhZTE3NTk=.png,55.83,MCblur,0.058012658227848096,43.56,0.5302857142857144,1,1
MGZhNGM5ZmE3Njc5NTQ0Njk1OGVjYzJjNzk2MDdiYzQ=.png,456.25,MCblur,0.564873417721519,47.4,0.64,1,0
MjBhZTEyYTRhZTlmNGY4OWY2NTZlMzIyMGZjZDVlMWI=.png,106.93,MCblur,0.12269620253164558,46.07,0.602,1,0
Mjg4NTI3OWZlMjIzZmZhMDk4MDcxNWQ0Yjc5NzE0NmQ=.png,47.42,MCblur,0.04736708860759494,36.74,0.33542857142857146,1,1
MjI4MjExY2NmYzBkMDExYWJjY2JkNTlhMDg4ZDZhODE=.png,85.06,MCblur,0.0950126582278481,44.73,0.5637142857142856,1,1
MjkzODgzNjE0YmQ1MGEyZjMyNTQ4NWI2YTcyOTVlNTI=.png,23.45,MCblur,0.0170253164556962,37.93,0.36942857142857144,1,1
MjllYjRhMjFiODBhZWU4Y2NiYTQ0NmY5MDk1ZjI2MjE=.png,118.42,MCblur,0.13724050632911391,49.16,0.6902857142857142,1,0
MjViNTg4NDg3NzkwNTEwODQ0ZjEyMzhmZDY1ZTEwMTg=.png,165.75,MCblur,0.1971518987341772,49.53,0.7008571428571428,1,0
MjVjNmYwMzA0NzJhNmM5OTlkYTdjZGZkNzViOWUxNmM=.png,107.22,MCblur,0.1230632911392405,44.1,0.5457142857142857,1,0
MjVkZTViZmRhZjVmNGM1NjNjMzE2ZmNlZDY3MTNmMjU=.png,48.21,MCblur,0.048367088607594935,44.09,0.5454285714285715,1,1
MmQ0OWUxMzBmZjk4ZjVlMTU2MDNhMmMxOTRlZjc1Y2Y=.png,26.4,MCblur,0.020759493670886073,39.56,0.4160000000000001,1,1
MmU1YTY3ODY4ZTZiNDZmZWEyMjJiNGJiY2YxYjQ0NzI=.png,16.42,MCblur,0.008126582278481015,31.56,0.1874285714285714,1,1
MTE5MGQ4NDgwZDlkNTdlODVhY2U4N2I5MTE4NWQ3OWI=.png,187.71,MCblur,0.2249493670886076,46.49,0.6140000000000001,1,0
MTFjNDBlNmNjMTI2NTlhMTg3ZmRiODQ3MTAwNjdjM2I=.png,210.58,MCblur,0.2538987341772152,48.36,0.6674285714285714,1,0
MThhNTM5MWUwN2M3MDExN2NkMzkzMTk4MWQ5YzkwZWE=.png,48.44,MCblur,0.04865822784810126,42.71,0.506,1,1
MTVhNDFhMmRmMjdkOWVjNWQ3NWU2NDRkOTY2MzE0NmQ=.png,59.39,MCblur,0.06251898734177215,40.78,0.4508571428571429,1,1
MTVjYTU3N2Q3NmI0ZTMxNGJhZDQ1MTAzOTRkMGFjMGI=.png,25.49,MCblur,0.01960759493670886,33.22,0.23485714285714282,1,1
MWFiMmZkYTkxODIxOTMzN2VkZWJlYmQ5ZTE3MzM1NDI=.png,43.22,MCblur,0.042050632911392404,31.25,0.17857142857142858,1,1
MWIxYWE0MDQwNDdiM2MyNWNkNjBmNDc5NzM5Y2I3ZmQ=.png,89.68,MCblur,0.10086075949367089,44.75,0.5642857142857143,1,1
MWMxYzQzNzYzMWFmMjJmMDJjZjk3Mzk4Y2QyYmM3NzY=.png,82.97,MCblur,0.09236708860759493,41.17,0.462,1,1
MzAxZDAyM2Q1ZDRmYWJlYzhmYTI3ZDNjNjMzMmI4ZTU=.png,95.33,MCblur,0.1080126582278481,41.93,0.4837142857142857,1,1
Mzc3MWYzYzZjNjk3ZjBhMDA2ZjUwYTUzNWRmODNlZTE=.png,97.84,MCblur,0.11118987341772152,45.63,0.5894285714285715,1,0
MzhjYWNiMmI2MzVmMDNmNTc2MThiOTlmZGEwNDZiOWI=.png,79.69,MCblur,0.08821518987341771,35.91,0.3117142857142856,1,1
MzJkZDRlMjZlYzFlODBkODZlMjdmMDVhN2I0MmVhMjc=.png,56.21,MCblur,0.05849367088607595,34.07,0.2591428571428572,1,1
MzQwZDZiNzcxOGEzNzhmNmVkZjIyNDkwNjc0NzI2ODA=.png,118.11,MCblur,0.13684810126582278,41.05,0.45857142857142846,1,1
MzZlOTNlYTI4ZTlhZmVmYjQ5ZWQxOTg1M2QzNGJkODM=.png,134.61,MCblur,0.1577341772151899,43.8,0.537142857142857,1,0
N2EyNTQ2ODhlY2MzOWRiZDFhODA1MmRkZTg2Y2JkZmI=.png,20.75,MCblur,0.01360759493670886,41.36,0.4674285714285714,1,1
N2JjMjk3Y2FlZGM4NDA3YWEyMWEyMWFmNWY3ZjAyMjg=.png,118.47,MCblur,0.13730379746835442,42.06,0.4874285714285715,1,1
N2U5ODZkZmQ1MjRjMmMyYjAzNTYzM2FmMTA1MjkxM2M=.png,120.92,MCblur,0.14040506329113925,47.08,0.6308571428571428,1,0
NDAyNWFlNDY0MWZhODkyM2Q4NDk1MDIzODQ2YmRkNjk=.png,251.25,MCblur,0.30537974683544306,47.91,0.6545714285714285,1,0
NDE3MDlkODEwN2NhZTUzMmM1ZTExYTY0MTA3ODVkYmM=.png,57.64,MCblur,0.06030379746835443,40.78,0.4508571428571429,1,1
NDI1Y2U3MWU5YjQ4NmE3ZWMwYmVkMmE3MjhiNzhmNmM=.png,70.86,MCblur,0.0770379746835443,48.84,0.6811428571428573,1,0
NDkyYmM3ZmUyZmU3MmYyYzQ2MjZkNDE4ZGFjNmI0ZTA=.png,63.65,MCblur,0.06791139240506329,37.1,0.34571428571428575,1,1
NGFiNTdmNTgyOWQzOTA2MmY4OWM3MDA4YTYxZTRkOGE=.png,41.87,MCblur,0.04034177215189873,41.25,0.4642857142857143,1,1
NjBjNmI1ZDljMTNkNGEzYjJiMmE3YzAxYTQxMDBhYzU=.png,325.38,MCblur,0.3992151898734177,45.04,0.5725714285714285,1,0
Njg3M2NmMTUxMjMxMWRmOTgzMDEyNGMxZjJkNGU4NzU=.png,78.84,MCblur,0.08713924050632912,38.32,0.38057142857142856,1,1
NjVhNzc2ZmJlZWZhNDA2MDNkYWQ4NDQ3OThlN2QxODk=.png,106.59,MCblur,0.12226582278481013,39.34,0.4097142857142858,1,1
NjY0M2YwOThjMTZhMGExMTA1MjE5NmMzN2NmNDkwYTI=.png,23.19,MCblur,0.01669620253164557,42.44,0.4982857142857142,1,1
NmM4YjljMDEzMzIxODcxYzUzZTE1Nzc4ZWMwMDg2Y2Y=.png,13.33,MCblur,0.004215189873417721,34.81,0.28028571428571436,1,1
NmZhMWNjNzA5MjM2OWE3ZGYzMzg3NTU1ZDIzMzdhZmI=.png,112.59,MCblur,0.1298607594936709,44.08,0.545142857142857,1,0
NTIwYTA0ODAxMWY1NjUxZjM1NWVmMTczYjAxNmQwODc=.png,57.45,MCblur,0.06006329113924051,44.26,0.5502857142857143,1,1
NTlhYTY1ZTZhYmE1OGUxNDdkMjMyNDBkYTliNTAzMjg=.png,37.84,MCblur,0.03524050632911393,46.0,0.6,1,1
NTNiNTlhZWRkZTM5NjVjODVmMjMwZjVmNTdmZTNkMDM=.png,38.6,MCblur,0.03620253164556962,43.42,0.5262857142857144,1,1
NTQ3MDEzNzBkYWM3MjVlYzUyNmM5Zjk0ZTkwMWRiMzI=.png,23.97,MCblur,0.017683544303797465,30.89,0.1682857142857143,1,1
NWIxNGIwMzY2YWM3MzBmM2JlMzBiZmQ0ZGI2ZjdhM2E=.png,364.94,MCblur,0.44929113924050634,44.67,0.562,1,0
NWM4NjFkYjFjNTM4NTgxNjM0MTNjMzJiNTRlZjVlMjM=.png,407.33,MCblur,0.5029493670886076,39.14,0.404,1,0
NWQ4ODZlNDlmY2UyMjA2N2U1MzFiNTM1NjQxZWMwMDA=.png,105.99,MCblur,0.12150632911392405,43.27,0.5220000000000001,1,1
NWRlNzVjNTlmZGQyZWRkYjBhZjkwNmFhOWM1MzJiYzI=.png,52.44,MCblur,0.05372151898734177,39.84,0.4240000000000001,1,1
NWYyYmE0OTJlZWIyNjcwMDJiNTEwZjkyZjU1ZjY3MDQ=.png,87.22,MCblur,0.09774683544303797,39.84,0.4240000000000001,1,1
NzAzOGMwMzYwZjE1ZDExZDA2NzlkNzQ5ZTQyYWI3NWM=.png,33.99,MCblur,0.03036708860759494,40.34,0.4382857142857144,1,1
NzE1NDg2MTAzNDAxZTIxNjk3MWExNTNhN2FkMDRkMjY=.png,74.12,MCblur,0.08116455696202532,44.15,0.5471428571428572,1,1
NzIwNmIzNjdjNzYwOGViZjNlZmVhNDk4YzU1MDlhYTc=.png,126.46,MCblur,0.14741772151898733,45.16,0.576,1,0
_m0AnnuZtekBpwtWPLmz.png,38.44,MCblur,0.036,43.58,0.5308571428571428,1,1
