id,classes
1,my_coatofarm
2,my_signature
3,my_tengkolok
4,my_touchngo
5,my_malaysiaword
6,my_ketuapengarah
7,my_pendaftarannegara
8,my_80kchip
9,my_serialnumber
10,my_back_ic_no
11,my_klcctower
12,my_back_ic_id
13,my_atm
